<svg width="24" height="24" viewBox="0 0 24 24" fill="none" xmlns="http://www.w3.org/2000/svg">
<path d="M23.0002 11.821H1.5083" stroke="#81919E" stroke-width="1.5" stroke-linecap="round" stroke-linejoin="round"/>
<path d="M12.258 22.5657V1.07373" stroke="#81919E" stroke-width="1.5" stroke-linecap="round" stroke-linejoin="round"/>
</svg>
